…
``` r
# Rename the columns in the tibble
colnames(diaspore_messy) <- c('hydroriparian', 'mesoriparian', 'xeroriparian')

# Convert the tibble to long format and remove NA values
diaspore_clean <- diaspore_messy %>% 
  gather("riparian_zone", "diaspore_mass", 1:3) %>%
  drop_na()

# Print the tibble
diaspore_clean
```

    ## # A tibble: 33 x 2
    ##    riparian_zone diaspore_mass
    ##    <chr>                 <dbl>
    ##  1 hydroriparian          0.25
    ##  2 hydroriparian          0.32
    ##  3 hydroriparian          0.23
    ##  4 hydroriparian          0.19
    ##  5 hydroriparian          0.26
    ##  6 hydroriparian          0.27
    ##  7 hydroriparian          0.21
    ##  8 hydroriparian          0.18
    ##  9 hydroriparian          0.33
    ## 10 hydroriparian          0.26
    ## # ... with 23 more rows
…
